{
  "images" : [
    {
      "idiom" : "universal",
      "filename" : "cartoon-cinema-movie-color-icons-set-vector-symbol-film-cinematography-flat-style-design-illustration-95075254.jpg",
      "scale" : "1x"
    },
    {
      "idiom" : "universal",
      "scale" : "2x"
    },
    {
      "idiom" : "universal",
      "scale" : "3x"
    }
  ],
  "info" : {
    "version" : 1,
    "author" : "xcode"
  }
}